\relax 
\@writefile{toc}{\contentsline {section}{\numberline {1}System requirements}{1}}
\@writefile{toc}{\contentsline {subsection}{\numberline {1.1}Prerequisits requirements}{1}}
\@writefile{toc}{\contentsline {subsection}{\numberline {1.2}Installation Requirements }{1}}
\@writefile{toc}{\contentsline {section}{\numberline {2}How to install software dependencies}{1}}
\@writefile{toc}{\contentsline {subsection}{\numberline {2.1}Java 8}{1}}
\@writefile{toc}{\contentsline {subsection}{\numberline {2.2}JUNIT}{1}}
\@writefile{toc}{\contentsline {subsection}{\numberline {2.3}Z3}{2}}
\@writefile{toc}{\contentsline {subsection}{\numberline {2.4}Barvinok}{2}}
\@writefile{toc}{\contentsline {subsection}{\numberline {2.5} Redis, caches all the results that it calculates}{2}}
